testCases/TC_005_Delete_Personal_Data.class
base/TestBase.class
testCases/TC_001_Get_All_Personal_Data.class
testCases/TC_004_Put_Personal_Data.class
testCases/TC_003_Post_Personal_Data.class
utilities/RestUtils.class
testCases/TC_002_Get_Single_Personal_Data.class
utilities/Listeners.class
utilities/ExcelUtil.class
